R Studio Conference 2019
…
library(tidyr)
library(tsibble)
library(lubridate)

We can use the EuStockMarkets data available in base R which is a ts object.

data("EuStockMarkets")

as_tibble can easily convert this into a tsibble in a long format. Here the index represents time and key identifies the variable that defines the series. Here each stock index ha a unique time stamp.

eu_ts <- as_tsibble(EuStockMarkets)
print(eu_ts)

## # A tsibble: 7,440 x 3 [1s] <UTC>
## # Key:       key [4]
##    index               key   value
##    <dttm>              <chr> <dbl>
##  1 1991-07-01 02:18:28 DAX   1629.
##  2 1991-07-02 12:00:00 DAX   1614.
##  3 1991-07-03 21:41:32 DAX   1607.
##  4 1991-07-05 07:23:05 DAX   1621.
##  5 1991-07-06 17:04:37 DAX   1618.
##  6 1991-07-08 02:46:09 DAX   1611.
##  7 1991-07-09 12:27:42 DAX   1631.
##  8 1991-07-10 22:09:14 DAX   1640.
##  9 1991-07-12 07:50:46 DAX   1635.
## 10 1991-07-13 17:32:18 DAX   1646.
## # ... with 7,430 more rows

Given the index in seconds, the tsibble expects an entry for each second, so the index should be converted to day.

eu_ts2 <-  eu_ts %>%
            mutate(index = as.Date(index))
print(eu_ts2)

## # A tsibble: 7,440 x 3 [1s]
## # Key:       key [4]
##    index      key   value
##    <date>     <chr> <dbl>
##  1 1991-07-01 DAX   1629.
##  2 1991-07-02 DAX   1614.
##  3 1991-07-03 DAX   1607.
##  4 1991-07-05 DAX   1621.
##  5 1991-07-06 DAX   1618.
##  6 1991-07-08 DAX   1611.
##  7 1991-07-09 DAX   1631.
##  8 1991-07-10 DAX   1640.
##  9 1991-07-12 DAX   1635.
## 10 1991-07-13 DAX   1646.
## # ... with 7,430 more rows
…
You can get a 30 day rolling average of the process as follows. Note that the first 29 observations of the rolling mean will be NA.

eu_ts3 <-  eu_ts2 %>%
            group_by(key) %>%
              mutate(avg_30day = slide_dbl(value,~mean(.,na.rm = TRUE),.size=30))

print(eu_ts3 %>% filter_index("1991-08-01"~"1991-09-01") )

## # A tsibble: 88 x 4 [1D]
## # Key:       key [4]
## # Groups:    key [4]
##    index      key   value avg_30day
##    <date>     <chr> <dbl>     <dbl>
##  1 1991-08-02 DAX   1620.       NA 
##  2 1991-08-03 DAX   1620.       NA 
##  3 1991-08-05 DAX   1623.       NA 
##  4 1991-08-06 DAX   1614.       NA 
##  5 1991-08-08 DAX   1632.       NA 
##  6 1991-08-09 DAX   1630.       NA 
##  7 1991-08-10 DAX   1633.     1624.
##  8 1991-08-12 DAX   1627.     1624.
##  9 1991-08-13 DAX   1650.     1625.
## 10 1991-08-15 DAX   1650.     1627.
## # ... with 78 more rows
…
Using glance

glance(ols_fit)

## # A tibble: 1 x 11
##   r.squared adj.r.squared sigma statistic p.value    df logLik   AIC   BIC
##       <dbl>         <dbl> <dbl>     <dbl>   <dbl> <int>  <dbl> <dbl> <dbl>
## 1     0.709         0.689  38.2      35.4 1.66e-8     3  -160.  329.  335.
## # ... with 2 more variables: deviance <dbl>, df.residual <int>

Using augment gives information about each observation in the training data

augment(ols_fit)

## # A tibble: 32 x 11
##    .rownames    hp   mpg   cyl .fitted .se.fit .resid   .hat .sigma .cooksd
##    <chr>     <dbl> <dbl> <dbl>   <dbl>   <dbl>  <dbl>  <dbl>  <dbl>   <dbl>
##  1 Mazda RX4   110  21       6   140.     6.84 -29.7  0.0320   38.5 0.00687
##  2 Mazda RX~   110  21       6   140.     6.84 -29.7  0.0320   38.5 0.00687
##  3 Datsun 7~    93  22.8     4    86.7   13.3    6.28 0.121    38.9 0.00141
##  4 Hornet 4~   110  21.4     6   139.     7.00 -28.6  0.0335   38.5 0.00668
##  5 Hornet S~   175  18.7     8   194.    12.8  -19.0  0.112    38.7 0.0117 
##  6 Valiant     105  18.1     6   148.     8.75 -42.7  0.0524   38.0 0.0243 
##  7 Duster 3~   245  14.3     8   206.     9.79  38.8  0.0656   38.2 0.0258 
##  8 Merc 240D    62  24.4     4    82.3   11.6  -20.3  0.0924   38.7 0.0105 
##  9 Merc 230     95  22.8     4    86.7   13.3    8.28 0.121    38.9 0.00246
## 10 Merc 280    123  19.2     6   145.     7.47 -21.7  0.0382   38.7 0.00443
## # ... with 22 more rows, and 1 more variable: .std.resid <dbl>
…
Action and Selection Verbs

dplyr verbs comes in two flavors - action and selection. select is a selection verb while verbs like mutate,group_by and transmute are action verbs.

Action verbs created new vectors and modify the dataframe.Selection verbs look up the position of the columns in the dataframe and re-organizes the dataframe.

Selection verbs are context aware and know about current variables.

starwars %>% select(c(1:height))

## # A tibble: 87 x 2
##    name               height
##    <chr>               <int>
##  1 Luke Skywalker        172
##  2 C-3PO                 167
##  3 R2-D2                  96
##  4 Darth Vader           202
##  5 Leia Organa           150
##  6 Owen Lars             178
##  7 Beru Whitesun lars    165
##  8 R5-D4                  97
##  9 Biggs Darklighter     183
## 10 Obi-Wan Kenobi        182
## # ... with 77 more rows

starwars %>% select(1:height)

## # A tibble: 87 x 2
##    name               height
##    <chr>               <int>
##  1 Luke Skywalker        172
##  2 C-3PO                 167
##  3 R2-D2                  96
##  4 Darth Vader           202
##  5 Leia Organa           150
##  6 Owen Lars             178
##  7 Beru Whitesun lars    165
##  8 R5-D4                  97
##  9 Biggs Darklighter     183
## 10 Obi-Wan Kenobi        182
## # ... with 77 more rows

starwars %>% select(-1,-height)

## # A tibble: 87 x 11
##     mass hair_color skin_color eye_color birth_year gender homeworld species
##    <dbl> <chr>      <chr>      <chr>          <dbl> <chr>  <chr>     <chr>  
##  1    77 blond      fair       blue            19   male   Tatooine  Human  
##  2    75 <NA>       gold       yellow         112   <NA>   Tatooine  Droid  
##  3    32 <NA>       white, bl~ red             33   <NA>   Naboo     Droid  
##  4   136 none       white      yellow          41.9 male   Tatooine  Human  
##  5    49 brown      light      brown           19   female Alderaan  Human  
##  6   120 brown, gr~ light      blue            52   male   Tatooine  Human  
##  7    75 brown      light      blue            47   female Tatooine  Human  
##  8    32 <NA>       white, red red             NA   <NA>   Tatooine  Droid  
##  9    84 black      light      brown           24   male   Tatooine  Human  
## 10    77 auburn, w~ fair       blue-gray       57   male   Stewjon   Human  
## # ... with 77 more rows, and 3 more variables: films <list>, vehicles <list>,
## #   starships <list>
…
group_by is an action verb, it does not work with selection helpers. The code below does not work.

#starwars %>% group_by(ends_with"color")

Instead you can use..

starwars %>% group_by_at(vars(ends_with("color"))) %>% summarise(mean_height=mean(height))

## # A tibble: 67 x 4
## # Groups:   hair_color, skin_color [50]
##    hair_color    skin_color       eye_color mean_height
##    <chr>         <chr>            <chr>           <dbl>
##  1 <NA>          gold             yellow            167
##  2 <NA>          green            black             173
##  3 <NA>          green-tan, brown orange            175
##  4 <NA>          white, blue      red                96
##  5 <NA>          white, red       red                97
##  6 auburn        fair             blue              150
##  7 auburn, grey  fair             blue              180
##  8 auburn, white fair             blue-gray         182
##  9 black         blue, grey       yellow            137
## 10 black         brown            brown             171
## # ... with 57 more rows
…
